167f438141306ed76ea3dc2cd29875f0_image.png,"(0, 190, 450, 860)",person,nul,null,null,No Object Found
156f4bf3aecfd2b0998eadee452bb06d_image.png,"(0, 191, 447, 857)",person,nul,null,null,No Object Found
034dc8234bf184ee0baba6f7a45e23f2_image.png,"(0, 121, 450, 876)",person,nul,null,null,No Object Found
